{
    "name": "python-scikit-sklearn",
    "buildsystem": "simple",
    "ensure-writable": ["/lib/python*/site-packages/easy-install.pth","/lib/python*/site-packages/setuptools.pth"],
    "modules": [
        {
            "name": "python-threadpoolctl",
            "buildsystem": "simple",
            "build-commands": [
                "pip3 install --disable-pip-version-check --verbose --exists-action=i --no-index --find-links=\"file://${PWD}\" --prefix=${FLATPAK_DEST} --no-build-isolation \"threadpoolctl\""
            ],
            "sources": [
                {
                    "type": "file",
                    "url": "https://files.pythonhosted.org/packages/4b/2c/ffbf7a134b9ab11a67b0cf0726453cedd9c5043a4fe7a35d1cefa9a1bcfb/threadpoolctl-3.5.0-py3-none-any.whl",
                    "sha256": "56c1e26c150397e58c4926da8eeee87533b1e32bef131bd4bf6a2f45f3185467"
                }
            ]
        },


        {
            "name": "python-joblib",
            "buildsystem": "simple",
            "build-commands": [
                "pip3 install --disable-pip-version-check --verbose --exists-action=i --no-index --find-links=\"file://${PWD}\" --prefix=${FLATPAK_DEST} \"joblib\" --no-build-isolation"
            ],
            "sources": [
                {
                    "type": "file",
                    "url": "https://files.pythonhosted.org/packages/91/29/df4b9b42f2be0b623cbd5e2140cafcaa2bef0759a00b7b70104dcfe2fb51/joblib-1.4.2-py3-none-any.whl",
                    "sha256": "06d478d5674cbc267e7496a410ee875abd68e4340feff4490bcb7afb88060ae6"
                }
            ]
        },


        {
            "name": "python-numpy",
            "buildsystem": "simple",
            "build-commands": [
                "pip3 install --disable-pip-version-check --verbose --exists-action=i --no-index --find-links=\"file://${PWD}\" --prefix=${FLATPAK_DEST} \"numpy\" --no-build-isolation"
            ],
            "sources": [
                {
                    "only-arches": ["x86_64"],
                    "type": "file",
                    "url": "https://files.pythonhosted.org/packages/d1/27/2a7bd6855dc717aeec5f553073a3c426b9c816126555f8e616392eab856b/numpy-2.0.0-cp311-cp311-manylinux_2_17_x86_64.manylinux2014_x86_64.whl",
                    "sha256": "a7039a136017eaa92c1848152827e1424701532ca8e8967fe480fe1569dae581"
                },
                {
                    "only-arches": ["aarch64"],
                    "type": "file",
                    "url": "https://files.pythonhosted.org/packages/cd/37/595f27a95ff976e8086bc4be1ede21ed24ca4bc127588da59197a65d066f/numpy-2.0.0-cp311-cp311-manylinux_2_17_aarch64.manylinux2014_aarch64.whl",
                    "sha256": "5f64641b42b2429f56ee08b4f427a4d2daf916ec59686061de751a55aafa22e4"
                }
            ]
        },


        {
            "name": "python-scipy",
            "buildsystem": "simple",
            "build-commands": [
                "pip3 install --disable-pip-version-check --verbose --exists-action=i --no-index --find-links=\"file://${PWD}\" --prefix=${FLATPAK_DEST} \"scipy\" --no-build-isolation"
            ],
            "sources": [
                {
                    "only-arches": ["x86_64"],
                    "type": "file",
                    "url": "https://files.pythonhosted.org/packages/89/bb/80c9c98d887c855710fd31fc5ae5574133e98203b3475b07579251803662/scipy-1.14.0-cp311-cp311-manylinux_2_17_x86_64.manylinux2014_x86_64.whl",
                    "sha256": "9e3154691b9f7ed73778d746da2df67a19d046a6c8087c8b385bc4cdb2cfca74"
                },
                {
                    "only-arches": ["aarch64"],
                    "type": "file",
                    "url": "https://files.pythonhosted.org/packages/6c/bb/f44e22697740893ffa84239ca3766bdb908c1c7135ebb272d5bd4bdc33e2/scipy-1.14.0-cp311-cp311-manylinux_2_17_aarch64.manylinux2014_aarch64.whl",
                    "sha256": "9eee2989868e274aae26125345584254d97c56194c072ed96cb433f32f692ed8"
                }
            ]
        }
    ],

    "build-commands": [
        "pip3 install --disable-pip-version-check --verbose --exists-action=i --no-index --find-links=\"file://${PWD}\" --prefix=${FLATPAK_DEST} --no-build-isolation \"scikit-learn\""
    ],
    "sources": [
        {
            "only-arches": ["x86_64"],
            "type": "file",
            "url": "https://files.pythonhosted.org/packages/32/63/ed228892adad313aab0d0f9261241e7bf1efe36730a2788ad424bcad00ca/scikit_learn-1.5.1-cp311-cp311-manylinux_2_17_x86_64.manylinux2014_x86_64.whl",
            "sha256": "689b6f74b2c880276e365fe84fe4f1befd6a774f016339c65655eaff12e10cbf"
        },
        {
            "only-arches": ["aarch64"],
            "type": "file",
            "url": "https://files.pythonhosted.org/packages/c1/f8/fd3fa610cac686952d8c78b8b44cf5263c6c03885bd8e5d5819c684b44e8/scikit_learn-1.5.1-cp311-cp311-manylinux_2_17_aarch64.manylinux2014_aarch64.whl",
            "sha256": "909144d50f367a513cee6090873ae582dba019cb3fca063b38054fa42704c3a4"
        }
    ]
}
